{
  "notes": [
    {
      "title": "Yoshi's",
      "details": "loramemsbdfkjdsbfkdsjfbsdjkfbsdkjfbsdkjfbskjdf",
      "category": "money",
      "id": 1
    },
    {
      "title": "prames's",
      "details": "loramemsbdfkjdsbfkdsjfbsdjkfbsdkjfbsdkjfbskjdf",
      "category": "todos",
      "id": 2
    },
    {
      "title": "prames's",
      "details": "loramemsbdfkjdsbfkdsjfbsdjkfbsdkjfbsdkjfbskjdf",
      "category": "work",
      "id": 3
    },
    {
      "title": "prames's",
      "details": "loramemsbdfkjdsbfkdsjfbsdjkfbsdkjfbsdkjfbskjdf",
      "category": "reminder",
      "id": 4
    },
    {
      "title": "lorem",
      "details": "Lorem ipsum dolor sit amet, consectetur adipiscing elit. Quisque nisl eros, pulvinar facilisis justo mollis, auctor consequat urna. Morbi a bibendum metus.\nDonec scelerisque sollicitudin enim eu venenatis. Duis tincidunt laoreet ex, in pretium orci vestibulum eget. Class aptent taciti sociosqu ad litora torquent per conubia nostra, per inceptos himenaeos. Duis pharetra luctus lacus ut vestibulum. Maecenas ipsum lacus, lacinia quis posuere ut, pulvinar vitae dolor.\nInteger eu nibh at nisi ullamcorper sagittis id vel leo. Integer feugiat faucibus libero, at maximus nisl suscipit posuere. Morbi nec enim nunc. \nPhasellus bibendum turpis ut ipsum egestas, ",
      "category": "Reminder",
      "id": 5
    },
    {
      "title": "jsdnf",
      "details": "Lorem ipsum dolor sit amet, consectetur adipiscing elit. Quisque nisl eros, pulvinar facilisis justo mollis, auctor consequat urna. Morbi a bibendum metus.\nDonec scelerisque sollicitudin enim eu venenatis. Duis tincidunt laoreet ex, in pretium orci vestibulum eget. Class aptent taciti sociosqu ad litora torquent per conubia nostra, per inceptos himenaeos. Duis pharetra luctus lacus ut vestibulum. Maecenas ipsum lacus, lacinia quis posuere ut, pulvinar vitae dolor.\nInteger eu nibh at nisi ullamcorper sagittis id vel leo. Integer feugiat faucibus libero, at maximus nisl suscipit posuere. Morbi nec enim nunc. \nPhasellus bibendum turpis ut ipsum egestas, ",
      "category": "todos",
      "id": 6
    },
    {
      "title": "aksfnslkf",
      "details": "Lorem ipsum dolor sit amet, consectetur adipiscing elit. Quisque nisl eros, pulvinar facilisis justo mollis, auctor consequat urna. Morbi a bibendum metus.\nDonec scelerisque sollicitudin enim eu venenatis. Duis tincidunt laoreet ex, in pretium orci vestibulum eget. Class aptent taciti sociosqu ad litora torquent per conubia nostra, per inceptos himenaeos. Duis pharetra luctus lacus ut vestibulum. Maecenas ipsum lacus, lacinia quis posuere ut, pulvinar vitae dolor.\nInteger eu nibh at nisi ullamcorper sagittis id v",
      "category": "work",
      "id": 7
    }
  ]
}